<?xml version="1.0" encoding="utf-8"?>
<!-- Generator: Adobe Illustrator 18.1.0, SVG Export Plug-In . SVG Version: 6.00 Build 0)  -->
<!DOCTYPE svg PUBLIC "-//W3C//DTD SVG 1.1//EN" "http://www.w3.org/Graphics/SVG/1.1/DTD/svg11.dtd">
<svg version="1.1" id="Layer_1" xmlns="http://www.w3.org/2000/svg" xmlns:xlink="http://www.w3.org/1999/xlink" x="0px" y="0px"
	 width="25px" height="25px" viewBox="0 0 25 25" enable-background="new 0 0 25 25" xml:space="preserve">
<g>
	<g>
		<path fill="#231F20" d="M13.8,12.8c0-0.7-0.6-1.3-1.3-1.3c-0.7,0-1.3,0.6-1.3,1.3c0,0.7,0.6,1.3,1.3,1.3
			C13.3,14.1,13.8,13.5,13.8,12.8z M15.6,12.8c0,1.7-1.4,3.1-3.1,3.1c-1.7,0-3.1-1.4-3.1-3.1c0-0.5,0.1-0.9,0.3-1.3H7.2v4.2
			c0,1.1,0.9,2,2,2h6.5c1.1,0,2-0.9,2-2v-4.2h-2.4C15.5,11.9,15.6,12.4,15.6,12.8z M12.5,0C5.6,0,0,5.6,0,12.5
			C0,19.4,5.6,25,12.5,25C19.4,25,25,19.4,25,12.5C25,5.6,19.4,0,12.5,0z M19,15.8c0,1.8-1.5,3.2-3.2,3.2H9.2C7.5,19,6,17.5,6,15.8
			V9.2C6,7.4,7.5,6,9.2,6h6.5C17.5,6,19,7.4,19,9.2V15.8z M15.7,7.2H9.2c-1.1,0-2,0.9-2,2v1.1h3.6c0.5-0.4,1.1-0.6,1.8-0.6
			c0.7,0,1.3,0.2,1.8,0.6h3.4V9.2C17.8,8.1,16.9,7.2,15.7,7.2z"/>
	</g>
</g>
</svg>
