<?xml version="1.0" encoding="utf-8"?>
<!-- Generator: Adobe Illustrator 18.1.0, SVG Export Plug-In . SVG Version: 6.00 Build 0)  -->
<!DOCTYPE svg PUBLIC "-//W3C//DTD SVG 1.1//EN" "http://www.w3.org/Graphics/SVG/1.1/DTD/svg11.dtd">
<svg version="1.1" id="Layer_1" xmlns="http://www.w3.org/2000/svg" xmlns:xlink="http://www.w3.org/1999/xlink" x="0px" y="0px"
	 width="23.7px" height="23.7px" viewBox="0 0 23.7 23.7" enable-background="new 0 0 23.7 23.7" xml:space="preserve">
<g>
	<path fill="#231F20" d="M11.8,0C5.3,0,0,5.3,0,11.8c0,4.8,2.9,9,7.1,10.8c0-0.8,0-1.8,0.2-2.7c0.2-1,1.5-6.5,1.5-6.5
		s-0.4-0.8-0.4-1.9c0-1.8,1-3.1,2.3-3.1c1.1,0,1.6,0.8,1.6,1.8c0,1.1-0.7,2.7-1,4.2c-0.3,1.3,0.6,2.3,1.9,2.3c2.2,0,3.8-2.9,3.8-6.3
		C16.9,7.9,15.2,6,12,6c-3.6,0-5.8,2.7-5.8,5.7c0,1,0.3,1.8,0.8,2.3c0.2,0.3,0.2,0.4,0.2,0.7c-0.1,0.2-0.2,0.7-0.2,1
		c-0.1,0.3-0.3,0.4-0.6,0.3c-1.7-0.7-2.4-2.5-2.4-4.5C3.8,8,6.7,4,12.3,4c4.5,0,7.5,3.3,7.5,6.8c0,4.6-2.6,8.1-6.4,8.1
		c-1.3,0-2.5-0.7-2.9-1.5c0,0-0.7,2.7-0.8,3.3c-0.3,0.9-0.7,1.8-1.2,2.5c1.1,0.3,2.2,0.5,3.4,0.5c6.5,0,11.8-5.3,11.8-11.8
		S18.4,0,11.8,0z"/>
</g>
</svg>
