<?xml version="1.0" encoding="utf-8"?>
<!-- Generator: Adobe Illustrator 18.1.0, SVG Export Plug-In . SVG Version: 6.00 Build 0)  -->
<!DOCTYPE svg PUBLIC "-//W3C//DTD SVG 1.1//EN" "http://www.w3.org/Graphics/SVG/1.1/DTD/svg11.dtd">
<svg version="1.1" id="Layer_1" xmlns="http://www.w3.org/2000/svg" xmlns:xlink="http://www.w3.org/1999/xlink" x="0px" y="0px"
	 width="10.7px" height="11.7px" viewBox="0 0 10.7 11.7" enable-background="new 0 0 10.7 11.7" xml:space="preserve">
<g>
	<g>
		<path d="M8.4,8H2.8C1.3,8,0,6.7,0,5.1c0-1.3,1.1-2.5,2.4-2.8C2.6,0.9,4.1,0,5.5,0c1.3,0,2.3,1,2.7,1.9c0.7,0,1.2,0.3,1.5,0.7
			C10,3,10.1,3.4,10,3.9c0.5,0.5,0.7,1.2,0.7,1.8C10.7,7,9.7,8,8.4,8z M5.5,0.6C4.4,0.6,3,1.4,2.9,2.6c0,0.1-0.1,0.2-0.3,0.3
			C1.5,3,0.6,4,0.6,5.1c0,1.2,1,2.2,2.2,2.2h5.6c0.9,0,1.7-0.7,1.7-1.7c0-0.6-0.3-1.2-0.7-1.5C9.3,4.1,9.3,4,9.3,3.9
			c0.1-0.3,0.1-0.6,0-0.9C9.1,2.6,8.6,2.5,8.1,2.5C8,2.5,7.8,2.5,7.8,2.3C7.5,1.5,6.6,0.6,5.5,0.6z"/>
	</g>
	<g>
		<g>
			<path d="M7.1,9C7,9,6.9,9.1,6.9,9.2S7,9.4,7.1,9.4s0.2-0.1,0.2-0.2S7.2,9,7.1,9L7.1,9z"/>
		</g>
	</g>
	<g>
		<g>
			<path d="M5.1,9C5,9,4.9,9.1,4.9,9.2S5,9.4,5.1,9.4s0.2-0.1,0.2-0.2S5.2,9,5.1,9L5.1,9z"/>
		</g>
	</g>
	<g>
		<g>
			<path d="M3.2,9C3.1,9,3,9.1,3,9.2s0.1,0.2,0.2,0.2s0.2-0.1,0.2-0.2S3.3,9,3.2,9L3.2,9z"/>
		</g>
	</g>
	<g>
		<g>
			<path d="M7.1,10.6c-0.1,0-0.2,0.1-0.2,0.2S7,11,7.1,11s0.2-0.1,0.2-0.2S7.2,10.6,7.1,10.6L7.1,10.6z"/>
		</g>
	</g>
	<g>
		<g>
			<path d="M5.1,10.6c-0.1,0-0.2,0.1-0.2,0.2S5,11,5.1,11s0.2-0.1,0.2-0.2S5.2,10.6,5.1,10.6L5.1,10.6z"/>
		</g>
	</g>
	<g>
		<g>
			<path d="M3.2,10.6c-0.1,0-0.2,0.1-0.2,0.2S3.1,11,3.2,11s0.2-0.1,0.2-0.2S3.3,10.6,3.2,10.6L3.2,10.6z"/>
		</g>
	</g>
	<g>
		<g>
			<path d="M6.3,9.8c-0.1,0-0.2,0.1-0.2,0.2c0,0.1,0.1,0.2,0.2,0.2c0.1,0,0.2-0.1,0.2-0.2C6.5,9.9,6.4,9.8,6.3,9.8L6.3,9.8z"/>
		</g>
	</g>
	<g>
		<g>
			<path d="M8.2,9.8C8.1,9.8,8,9.9,8,10c0,0.1,0.1,0.2,0.2,0.2s0.2-0.1,0.2-0.2C8.4,9.9,8.3,9.8,8.2,9.8L8.2,9.8z"/>
		</g>
	</g>
	<g>
		<g>
			<path d="M4.4,9.8c-0.1,0-0.2,0.1-0.2,0.2c0,0.1,0.1,0.2,0.2,0.2c0.1,0,0.2-0.1,0.2-0.2C4.5,9.9,4.5,9.8,4.4,9.8L4.4,9.8z"/>
		</g>
	</g>
	<g>
		<g>
			<path d="M2.4,9.8c-0.1,0-0.2,0.1-0.2,0.2c0,0.1,0.1,0.2,0.2,0.2c0.1,0,0.2-0.1,0.2-0.2C2.6,9.9,2.5,9.8,2.4,9.8L2.4,9.8z"/>
		</g>
	</g>
	<g>
		<g>
			<path d="M6.3,11.4c-0.1,0-0.2,0.1-0.2,0.2c0,0.1,0.1,0.2,0.2,0.2c0.1,0,0.2-0.1,0.2-0.2C6.5,11.4,6.4,11.4,6.3,11.4L6.3,11.4z"/>
		</g>
	</g>
	<g>
		<g>
			<path d="M8.2,11.4c-0.1,0-0.2,0.1-0.2,0.2c0,0.1,0.1,0.2,0.2,0.2s0.2-0.1,0.2-0.2C8.4,11.4,8.3,11.4,8.2,11.4L8.2,11.4z"/>
		</g>
	</g>
	<g>
		<g>
			<path d="M4.4,11.4c-0.1,0-0.2,0.1-0.2,0.2c0,0.1,0.1,0.2,0.2,0.2c0.1,0,0.2-0.1,0.2-0.2C4.5,11.4,4.5,11.4,4.4,11.4L4.4,11.4z"/>
		</g>
	</g>
	<g>
		<g>
			<path d="M2.4,11.4c-0.1,0-0.2,0.1-0.2,0.2c0,0.1,0.1,0.2,0.2,0.2c0.1,0,0.2-0.1,0.2-0.2C2.6,11.4,2.5,11.4,2.4,11.4L2.4,11.4z"/>
		</g>
	</g>
</g>
</svg>
